"Patie ntguid","dd","asv vvvvaf","as aF"
"250","23.62","2200-09-15 11:49:46","I50"
"251","26.12","2200-02-20 11:49:46","I50.1"
"252","24.79","2200-01-08 11:49:46","I50.2"
"253","24.68","2200-02-05 11:49:46","I50.20"
"254","26.43","2200-09-15 11:49:46","I50.21"
"255","17.97","2200-12-11 11:49:46","I50.22"
"256","22.3","1996-10-11 11:49:46","I50.23"
"257","18.76","2200-08-03 11:49:46","I50.3"
"258","17.44","2200-03-19 11:49:46","I50.30"
"259","19.01","2200-10-22 11:49:46","I50.31"
"260","24.13","2200-06-06 11:49:46","I50.32"
"261","20.67","2200-08-05 11:49:46","I50.33"
"260","16.12","2200-04-17 11:49:46","I50.4"
"252","19.11","2200-03-04 11:49:46","I50.40"
"260","19.46","2200-10-21 11:49:46","I50.41"
"265","21.69","2200-04-27 11:49:46","I50.42"
"266","17.42","2200-04-04 11:49:46","I50.43"
"267","25.25","2200-03-07 11:49:46","I50.9"
"250","22.69","2200-12-18 11:49:46","I50"
"250","26.31","2200-11-26 11:49:46","I50.1"
"250","16.69","2200-12-02 11:49:46","I50.2"
"250","20.58","2200-08-17 11:49:46","I50.20"
"250","16.03","2200-01-27 11:49:46","I50.21"
"250","19.17","2200-09-09 11:49:46","I50.22"
"250","22.53","2200-01-19 11:49:46","I50.23"
"250","15.65","2200-03-08 11:49:46","I50.3"
"250","16.61","2200-09-26 11:49:46","I50.30"
"250","26.6","1998-11-27 11:49:46","I50.31"
"250","23.65","2200-02-20 11:49:46","I50.32"
"250","19.29","2200-01-26 11:49:46","I50.33"
"250","22.24","2200-11-09 11:49:46","I50.4"
"250","26.59","2200-11-20 11:49:46","I50.40"
"250","17.87","2200-12-25 11:49:46","I50.41"
